<?xml version="1.0" encoding="UTF-8" standalone="no"?>
<svg
   xmlns:dc="http://purl.org/dc/elements/1.1/"
   xmlns:cc="http://creativecommons.org/ns#"
   xmlns:rdf="http://www.w3.org/1999/02/22-rdf-syntax-ns#"
   xmlns:svg="http://www.w3.org/2000/svg"
   xmlns="http://www.w3.org/2000/svg"
   xmlns:sodipodi="http://sodipodi.sourceforge.net/DTD/sodipodi-0.dtd"
   xmlns:inkscape="http://www.inkscape.org/namespaces/inkscape"
   width="148.0mm"
   height="210.0mm"
   viewBox="0 0 148.0 210.0"
   version="1.1"
   id="SVGRoot"
   sodipodi:docname="Zine004.svg"
   inkscape:version="1.0.2 (e86c8708, 2021-01-15)">
  <defs
     id="defs1361" />
  <sodipodi:namedview
     id="base"
     pagecolor="#ffffff"
     bordercolor="#666666"
     borderopacity="1.0"
     inkscape:pageopacity="0.0"
     inkscape:pageshadow="2"
     inkscape:zoom="0.48369821"
     inkscape:cx="322.55064"
     inkscape:cy="430.81141"
     inkscape:document-units="mm"
     inkscape:current-layer="layer1"
     inkscape:document-rotation="0"
     showgrid="false"
     inkscape:window-width="1252"
     inkscape:window-height="781"
     inkscape:window-x="0"
     inkscape:window-y="25"
     inkscape:window-maximized="0" />
  <metadata
     id="metadata1364">
    <rdf:RDF>
      <cc:Work
         rdf:about="">
        <dc:format>image/svg+xml</dc:format>
        <dc:type
           rdf:resource="http://purl.org/dc/dcmitype/StillImage" />
        <dc:title></dc:title>
      </cc:Work>
    </rdf:RDF>
  </metadata>
  <g
     inkscape:label="Layer 1"
     inkscape:groupmode="layer"
     id="layer1">
    <path
       id="rect87"
       style="fill:#000000;fill-opacity:1;stroke-width:5.00001"
       d="M 294.80273 60.472656 L 294.80273 279.68555 L 514.01562 279.68555 L 514.01562 60.472656 L 294.80273 60.472656 z M 444.83984 79.150391 L 442.1543 101.60742 L 362.85352 101.60742 L 362.85352 143.83398 L 401.03711 143.83398 L 410.46875 140.47461 L 407.7832 162.93164 L 362.85352 162.93164 L 362.85352 235.93945 L 448.66602 235.93945 L 464.83008 230.55078 L 462.14258 253.00781 L 343.98828 253.00781 L 343.98828 84.537109 L 429.56836 84.537109 L 444.83984 79.150391 z "
       transform="scale(0.26458333)" />
  </g>
</svg>
