<?xml version="1.0" encoding="UTF-8" standalone="no"?>
<svg
   xmlns:dc="http://purl.org/dc/elements/1.1/"
   xmlns:cc="http://creativecommons.org/ns#"
   xmlns:rdf="http://www.w3.org/1999/02/22-rdf-syntax-ns#"
   xmlns:svg="http://www.w3.org/2000/svg"
   xmlns="http://www.w3.org/2000/svg"
   xmlns:xlink="http://www.w3.org/1999/xlink"
   xmlns:sodipodi="http://sodipodi.sourceforge.net/DTD/sodipodi-0.dtd"
   xmlns:inkscape="http://www.inkscape.org/namespaces/inkscape"
   width="148.0mm"
   height="210.0mm"
   viewBox="0 0 148.0 210.0"
   version="1.1"
   id="SVGRoot"
   sodipodi:docname="Zine002.svg"
   inkscape:version="1.0.2 (e86c8708, 2021-01-15)">
  <defs
     id="defs74">
    <filter
       id="filter-0"
       x="0"
       y="0"
       width="1"
       height="1">
      <feImage
         xlink:href="#compositing-group-1"
         result="source"
         x="0"
         y="0"
         width="312"
         height="306.58125"
         id="feImage1090" />
      <feImage
         xlink:href="#compositing-group-2"
         result="destination"
         x="0"
         y="0"
         width="312"
         height="306.58125"
         id="feImage1092" />
      <feComposite
         in="source"
         in2="destination"
         operator="arithmetic"
         k1="0"
         k2="1"
         k3="1"
         k4="0"
         color-interpolation-filters="sRGB"
         id="feComposite1094" />
    </filter>
  </defs>
  <sodipodi:namedview
     id="base"
     pagecolor="#ffffff"
     bordercolor="#666666"
     borderopacity="1.0"
     inkscape:pageopacity="0.0"
     inkscape:pageshadow="2"
     inkscape:zoom="0.3145016"
     inkscape:cx="44.601866"
     inkscape:cy="423.88061"
     inkscape:document-units="mm"
     inkscape:current-layer="layer1"
     inkscape:document-rotation="0"
     showgrid="false"
     inkscape:window-width="1252"
     inkscape:window-height="781"
     inkscape:window-x="0"
     inkscape:window-y="25"
     inkscape:window-maximized="0" />
  <metadata
     id="metadata77">
    <rdf:RDF>
      <cc:Work
         rdf:about="">
        <dc:format>image/svg+xml</dc:format>
        <dc:type
           rdf:resource="http://purl.org/dc/dcmitype/StillImage" />
        <dc:title></dc:title>
      </cc:Work>
    </rdf:RDF>
  </metadata>
  <g
     inkscape:label="Layer 1"
     inkscape:groupmode="layer"
     id="layer1">
    <path
       id="rect87"
       style="fill:#000000;fill-opacity:1;stroke-width:5.00001"
       d="M 294.80273 60.472656 L 294.80273 279.68555 L 514.01562 279.68555 L 514.01562 60.472656 L 294.80273 60.472656 z M 317.48047 83.150391 L 491.33789 83.150391 L 491.33789 141.10352 L 433.38672 141.10352 L 433.38672 199.05469 L 491.33789 199.05469 L 491.33789 257.00781 L 317.48047 257.00781 L 317.48047 199.05469 L 375.43359 199.05469 L 375.43359 141.10352 L 317.48047 141.10352 L 317.48047 83.150391 z "
       transform="scale(0.26458333)" />
  </g>
</svg>
